%YAML 1.1
%TAG !u! tag:unity3d.com,2011:
--- !u!114 &11400000
MonoBehaviour:
  m_ObjectHideFlags: 0
  m_CorrespondingSourceObject: {fileID: 0}
  m_PrefabInstance: {fileID: 0}
  m_PrefabAsset: {fileID: 0}
  m_GameObject: {fileID: 0}
  m_Enabled: 1
  m_EditorHideFlags: 0
  m_Script: {fileID: 11500000, guid: f1ce155a78cfd36469ad77e44404bc8e, type: 3}
  m_Name: masteryManager
  m_EditorClassIdentifier: 
  _pStatus: {fileID: 11400000, guid: 8da73d34e2c6c17489b2331a1926ac97, type: 2}
  _cObj: {fileID: 11400000, guid: 5ea8ae6887f655b4ca427254439d3b53, type: 2}
  _statusEffect: {fileID: 11400000, guid: 5f6bad6da6a67e6489dc0be8a165a6a1, type: 2}
  _damageIO: {fileID: 11400000, guid: e0a31a798c0610243a2aa54e7f3c598e, type: 2}
  isMasteryActive: 0
  isMasteryReady: 0
  chosenMasterySkill:
  - {fileID: 11400000, guid: 4c9453780bfd3c540b8ed31bdfa6d534, type: 2}
  - {fileID: 11400000, guid: cbc6fb419088d5947b0b15de446e18b3, type: 2}
  - {fileID: 11400000, guid: 0db6fa79d2d554c408d7f336e894191e, type: 2}
  - {fileID: 11400000, guid: fbaa6df537b344443abfcc6228b02855, type: 2}
  - {fileID: 11400000, guid: 5ead9d8251875194d80de97a3b9efa3e, type: 2}
