%YAML 1.1
%TAG !u! tag:unity3d.com,2011:
--- !u!114 &11400000
MonoBehaviour:
  m_ObjectHideFlags: 0
  m_CorrespondingSourceObject: {fileID: 0}
  m_PrefabInstance: {fileID: 0}
  m_PrefabAsset: {fileID: 0}
  m_GameObject: {fileID: 0}
  m_Enabled: 1
  m_EditorHideFlags: 0
  m_Script: {fileID: 11500000, guid: 9b35ab1510de4444286c6c01cef1b065, type: 3}
  m_Name: Moon Dust Sword
  m_EditorClassIdentifier: 
  itemId: 0
  itemName: Moon Dust Sword
  _sprite: {fileID: 21300000, guid: 83c0a28dcb88357438c02daf2f77547d, type: 3}
  type: 3
  _attBonus:
  - bonusAtt: 20
    attribute: 2
    attributeName: Attack
  - bonusAtt: 3
    attribute: 4
    attributeName: Attack.S
  description: when the moon is come, and the dark is gone
  itemValue: 0
  _weaponClass: 1
