%YAML 1.1
%TAG !u! tag:unity3d.com,2011:
--- !u!114 &11400000
MonoBehaviour:
  m_ObjectHideFlags: 0
  m_CorrespondingSourceObject: {fileID: 0}
  m_PrefabInstance: {fileID: 0}
  m_PrefabAsset: {fileID: 0}
  m_GameObject: {fileID: 0}
  m_Enabled: 1
  m_EditorHideFlags: 0
  m_Script: {fileID: 11500000, guid: 0a32e657dee6c1d4e96830ee695edcb6, type: 3}
  m_Name: Boot of Hermes
  m_EditorClassIdentifier: 
  itemId: 0
  itemName: Boot of Hermes
  _sprite: {fileID: 21300000, guid: 0a08d9a56506ed442bd8674a236264c9, type: 3}
  type: 6
  _attBonus:
  - bonusAtt: 8
    attribute: 3
    attributeName: Movement.S
  description: boot from the god to humans
  itemValue: 0
