%YAML 1.1
%TAG !u! tag:unity3d.com,2011:
--- !u!114 &11400000
MonoBehaviour:
  m_ObjectHideFlags: 0
  m_CorrespondingSourceObject: {fileID: 0}
  m_PrefabInstance: {fileID: 0}
  m_PrefabAsset: {fileID: 0}
  m_GameObject: {fileID: 0}
  m_Enabled: 1
  m_EditorHideFlags: 0
  m_Script: {fileID: 11500000, guid: 1c2f5fd20970417479f8c2b7c9c4d29b, type: 3}
  m_Name: plpayerHealingManager
  m_EditorClassIdentifier: 
  _pStatus: {fileID: 11400000, guid: 8da73d34e2c6c17489b2331a1926ac97, type: 2}
