%YAML 1.1
%TAG !u! tag:unity3d.com,2011:
--- !u!114 &11400000
MonoBehaviour:
  m_ObjectHideFlags: 0
  m_CorrespondingSourceObject: {fileID: 0}
  m_PrefabInstance: {fileID: 0}
  m_PrefabAsset: {fileID: 0}
  m_GameObject: {fileID: 0}
  m_Enabled: 1
  m_EditorHideFlags: 0
  m_Script: {fileID: 11500000, guid: ca7cb9d4034a25d419be104a3635740b, type: 3}
  m_Name: mask inventory
  m_EditorClassIdentifier: 
  database: {fileID: 11400000, guid: ab88b99298f8bd94083610e41dcf0967, type: 2}
  container:
  - itemId: 9
    item: {fileID: 11400000, guid: ec981d9839686fe43a9badfb085fd8fa, type: 2}
    amount: 0
    isEquiped: 0
  isEquipment: 1
  slotLimit: 0
