%YAML 1.1
%TAG !u! tag:unity3d.com,2011:
--- !u!114 &11400000
MonoBehaviour:
  m_ObjectHideFlags: 0
  m_CorrespondingSourceObject: {fileID: 0}
  m_PrefabInstance: {fileID: 0}
  m_PrefabAsset: {fileID: 0}
  m_GameObject: {fileID: 0}
  m_Enabled: 1
  m_EditorHideFlags: 0
  m_Script: {fileID: 11500000, guid: eb9b19cd5093ae444a7cd3d53e3e312e, type: 3}
  m_Name: duration up 1
  m_EditorClassIdentifier: 
  buttonName: duration upgrade 1
  idUpgrade: durationUp4
  upgradeRequirement: Health Cost Reduce
  idUpgradeReq: healthCostUp4
  upgradeReqTier: 5
  indexUpgrade: 1
  perkLevelReq: 10
  skillPointCost: 4
  spriteSheet: {fileID: 0}
