%YAML 1.1
%TAG !u! tag:unity3d.com,2011:
--- !u!114 &11400000
MonoBehaviour:
  m_ObjectHideFlags: 0
  m_CorrespondingSourceObject: {fileID: 0}
  m_PrefabInstance: {fileID: 0}
  m_PrefabAsset: {fileID: 0}
  m_GameObject: {fileID: 0}
  m_Enabled: 1
  m_EditorHideFlags: 0
  m_Script: {fileID: 11500000, guid: eb9b19cd5093ae444a7cd3d53e3e312e, type: 3}
  m_Name: db_healthIncrease7
  m_EditorClassIdentifier: 
  buttonName: health increase up7 Btt
  idUpgrade: hpIncreaseUp1
  upgradeRequirement: Icrease Health
  idUpgradeReq: hpIncreaseUp1
  upgradeReqTier: 6
  indexUpgrade: 7
  perkLevelReq: 11
  skillPointCost: 4
  spriteSheet: {fileID: 0}
